<?xml version="1.0" encoding="utf-8"?>
<!-- Generator: Avocode 2.3.2-e7da973 - http://avocode.com -->
<svg height="56" width="66" xmlns:xlink="http://www.w3.org/1999/xlink" xmlns="http://www.w3.org/2000/svg" viewBox="0 0 66 56">
    <path fill="#ffffff" fill-rule="evenodd" d="M 64 15 C 64 14.45 63.55 14 63 14 L 2 14 C 1.45 14 1 14.44 1 15 L 1 55 C 1 55.55 1.45 56 2 56 L 63 56 C 63.55 56 64 55.56 64 55 L 64 15 Z M 64 15" />
    <path fill="#ffffff" fill-rule="evenodd" d="M 65 14.01 C 65 13.45 64.55 13 64.01 13 L 0.99 13 C 0.45 13 0 13.45 0 14.01 L 0 26.99 C 0 27.55 0.45 28 0.99 28 L 64.01 28 C 64.55 28 65 27.55 65 26.99 L 65 14.01 Z M 65 14.01" />
    <path fill="#2f76dc" fill-rule="evenodd" d="M 38 36 C 38 37.11 37.11 38 36 38 L 30 38 C 28.9 38 28 37.11 28 36 L 28 32 C 28 30.89 28.89 30 30 30 L 36 30 C 37.1 30 38 30.89 38 32 L 38 36 Z M 38 36" />
    <path stroke-linejoin="round" stroke-linecap="butt" stroke-width="3" stroke="#ffffff" fill="none" fill-rule="evenodd" d="M 20.59 14.13 C 20.59 7.37 25.96 2 32.72 2 C 39.48 2 44.85 7.37 44.85 14.13" />
    <path fill="#2f76dc" fill-rule="evenodd" d="M 0.4 28.56 L 28.57 32.58 L 28.57 35 L 0.8 31.38 L 0.4 28.56 Z M 0.4 28.56" />
    <path fill="#2f76dc" fill-rule="evenodd" d="M 37.43 32.58 L 65.6 28.56 L 65.6 30.97 L 37.43 35 L 37.43 32.58 Z M 37.43 32.58" />
</svg>