<?xml version="1.0" encoding="utf-8"?>
<!-- Generator: Adobe Illustrator 17.0.0, SVG Export Plug-In . SVG Version: 6.00 Build 0)  -->
<!DOCTYPE svg PUBLIC "-//W3C//DTD SVG 1.1//EN" "http://www.w3.org/Graphics/SVG/1.1/DTD/svg11.dtd">
<svg version="1.1" id="Layer_1" xmlns="http://www.w3.org/2000/svg" xmlns:xlink="http://www.w3.org/1999/xlink" x="0px" y="0px"
	 width="140px" height="140px" viewBox="0 0 140 140" enable-background="new 0 0 140 140" xml:space="preserve">
<path fill="#0980FF" d="M70.41,139.77c38.38,0,69.5-31.12,69.5-69.5c0-38.39-31.12-69.5-69.5-69.5c-38.39,0-69.5,31.11-69.5,69.5
	C0.91,108.65,32.02,139.77,70.41,139.77z"/>
<path fill="#0764C7" d="M139.218,75.187L111,45.5c0,0-9.58,2.67-16,0c-5.58-2.33-12.75-12-12.75-12l-21.75,1c0,0-3.47,9.87-6.5,11
	c-6.8,2.54-23,0-23,0l1.5,54l7.5,8l33.741,32.16C108.706,137.759,136.78,110.007,139.218,75.187z"/>
<path fill="#FFFFFF" d="M111,47c0-0.55-0.44-1-1-1H33c-0.55,0-1,0.44-1,1v51c0,0.55,0.44,1,1,1h77c0.55,0,1-0.44,1-1V47z"/>
<path fill="#FFFFFF" d="M112,45.99c0-0.54-0.46-0.99-0.99-0.99H31.99C31.45,45,31,45.45,31,45.99v17.02c0,0.54,0.46,0.99,0.99,0.99
	h79.02c0.54,0,0.99-0.45,0.99-0.99V45.99z"/>
<path fill="#0764C7" d="M77,76.01c0,1.1-0.9,1.99-1.99,1.99h-7.02c-1.1,0-1.99-0.9-1.99-1.99v-7.02c0-1.1,0.9-1.99,1.99-1.99h7.02
	c1.1,0,1.99,0.9,1.99,1.99V76.01z"/>
<path fill="none" stroke="#FFFFFF" stroke-width="5" stroke-linejoin="round" d="M56.08,46.07c0-8.39,6.67-15.07,15.08-15.07
	c8.39,0,15.07,6.68,15.07,15.07"/>
<path fill="#0764C7" d="M31,64l35,5v3l-34.5-4.5L31,64z"/>
<path fill="#0764C7" d="M77,69l35-5v3l-35,5V69z"/>
</svg>
