<?xml version="1.0" encoding="utf-8"?>
<!-- Generator: Avocode 2.3.2-e7da973 - http://avocode.com -->
<svg height="10" width="14" xmlns:xlink="http://www.w3.org/1999/xlink" xmlns="http://www.w3.org/2000/svg" viewBox="0 0 14 10">
    <path fill="#c3c3c3" fill-rule="evenodd" d="M 13.26 1.5 L 7.75 5.85 C 7.54 6.01 7.27 6.09 7 6.09 C 6.73 6.09 6.46 6.01 6.26 5.85 L 0.74 1.5 C 0.33 1.17 0 1.35 0 1.88 L 0 9.03 C 0 9.56 0.42 10 0.93 10 L 13.07 10 C 13.58 10 14 9.56 14 9.03 L 14 1.88 C 14 1.35 13.67 1.17 13.26 1.5 Z M 0.9 0.56 L 6.12 4.43 C 6.36 4.6 6.68 4.68 7 4.66 C 7.32 4.68 7.64 4.6 7.88 4.43 L 13.1 0.56 C 13.52 0.25 13.43 0 12.9 0 L 1.11 0 C 0.57 0 0.48 0.25 0.9 0.56 Z M 0.9 0.56" />
</svg>