<?xml version="1.0" encoding="utf-8"?>
<!-- Generator: Avocode 2.3.2-e7da973 - http://avocode.com -->
<svg height="254" width="287" xmlns:xlink="http://www.w3.org/1999/xlink" xmlns="http://www.w3.org/2000/svg" viewBox="0 0 287 254">
    <path fill="#fee9bb" fill-rule="evenodd" d="M 207.42 14.25 C 212.38 13.31 227.03 7.13 234.06 19.58 L 233.54 213.73 C 233.54 213.73 234.51 228.08 214.33 228.03 C 197.18 227.98 72.04 227.65 72.04 227.65 L 72.6 21.06 L 206.81 21.42" />
    <path fill="#fefdf3" fill-rule="evenodd" d="M 228.47 226.71 L 228.48 224.29 L 228.48 226.71 L 228.48 224.29 L 228.48 226.71 C 229.65 226.71 230.69 226.29 231.51 225.74 C 232.73 224.89 233.57 223.73 234.17 222.43 C 234.77 221.13 235.11 219.64 235.11 218.06 C 235.12 216.62 234.82 215.09 234.13 213.62 C 233.11 211.41 231.17 209.41 228.41 208.08 C 225.65 206.74 222.1 206 217.58 206 C 214.74 206 214.96 205.36 211.27 206 L 211.27 209.85 L 211.8 13.78 L 205.9 13.77 L 205.37 213.34 L 208.83 212.74 C 212.25 212.15 215.15 211.9 217.58 211.9 C 220.16 211.9 222.21 212.18 223.79 212.62 C 226.17 213.29 227.46 214.26 228.21 215.19 C 228.94 216.11 229.21 217.08 229.22 218.06 C 229.23 219 228.91 219.92 228.56 220.44 C 228.4 220.69 228.23 220.84 228.18 220.87 L 228.48 221.52 L 228.48 220.82 C 228.33 220.81 228.22 220.85 228.18 220.87 L 228.48 221.52 L 228.48 220.82 L 228.47 223.23 L 228.47 220.82 L 228.47 223.23 L 228.47 220.82 L 228.47 226.71 L 212 241.5" />
    <path fill="#6a8187" fill-rule="evenodd" d="M 123.09 212.41 C 123.41 234.78 105.53 253.18 83.16 253.5 C 60.79 253.82 42.39 235.95 42.07 213.57 C 41.74 191.2 59.62 172.8 81.99 172.48 C 104.37 172.16 122.77 190.04 123.09 212.41" />
    <path fill="#fce4ab" fill-rule="evenodd" d="M 94.87 199.33 C 94.31 211.26 102.87 218.85 102.87 218.85 L 97.32 219.28 L 97.39 224.19 C 97.4 225.24 92.85 225.44 92.85 225.44 L 92.69 225.92 L 97.45 228 L 96.62 236.54 L 81.59 238.35 L 83.98 256.5 L 64.48 252.95 L 62.36 193.07" />
    <path fill="#153230" fill-rule="evenodd" d="M 90.23 200.55 C 90.23 200.55 101.56 199.24 97.67 181.84 L 62.26 191.11 L 63.27 238.73 C 63.27 238.73 70.44 224.12 66.37 218.13 C 66.37 218.13 82.38 208.1 71.78 195.91 C 71.78 195.91 77.2 203.88 91.22 200.27" />
    <path fill="#332e1e" fill-rule="evenodd" d="M 87.29 253.17 L 61.64 241.49 L 60.63 264.78 L 85.29 260.32 L 87.29 253.17" />
    <path fill="#000001" fill-rule="evenodd" d="M 91.54 210.43 C 91.56 211.61 90.62 212.57 89.44 212.59 C 88.26 212.61 87.29 211.67 87.28 210.49 C 87.26 209.32 88.2 208.35 89.38 208.33 C 90.56 208.31 91.52 209.25 91.54 210.43" />
    <path fill="#ffffff" fill-rule="evenodd" d="M 98.95 140.96 L 48 140.96 L 48 50.02 L 297.92 50.02 L 297.92 141 L 120.8 141 C 119.22 152.69 108.64 159.06 102.84 160.86 L 98.95 162.08 L 98.95 140.96" />
    <path fill="#4a66a1" fill-rule="evenodd" d="M 294.92 53.02 L 294.92 138 L 118 138 C 118 153 101.95 158 101.95 158 L 101.95 137.96 L 51 137.96 L 51 53.02 L 294.92 53.02 M 300.92 47.02 L 45 47.02 L 45 143.96 L 95.95 143.96 L 95.95 166.15 L 103.73 163.73 C 104.47 163.5 119.86 158.53 123.32 144 L 300.92 144 L 300.92 47.02" />
    <path fill="#2d2d2d" fill-rule="evenodd" d="M 71.13 67.85 L 89.55 67.85 L 89.55 89.09 L 84.42 89.09 L 84.42 72.2 L 76.26 72.2 L 76.26 89.09 L 71.13 89.09 L 71.13 67.85" />
    <path fill="#2d2d2d" fill-rule="evenodd" d="M 93.66 74.15 L 98.34 74.15 L 98.34 75.98 L 98.43 75.98 C 99.33 74.78 101.01 73.73 103.2 73.73 C 107.55 73.73 110.28 77.39 110.28 81.56 C 110.28 85.73 107.67 89.51 103.17 89.51 C 101.34 89.51 99.57 88.73 98.64 87.44 L 98.58 87.44 L 98.58 96.29 L 93.66 96.29 L 93.66 74.15 L 93.66 74.15 Z M 105.51 81.56 C 105.51 79.64 104.34 77.75 102 77.75 C 99.78 77.75 98.4 79.7 98.4 81.59 C 98.4 83.54 99.78 85.43 102 85.43 C 104.34 85.43 105.51 83.51 105.51 81.56 L 105.51 81.56 Z M 105.51 81.56" />
    <path fill="#2d2d2d" fill-rule="evenodd" d="M 113.37 74.15 L 118.23 74.15 L 118.23 82.85 L 118.29 82.85 L 123.48 74.15 L 128.7 74.15 L 128.7 89.09 L 123.9 89.09 L 123.9 80.6 L 123.81 80.6 L 118.71 89.09 L 113.37 89.09 L 113.37 74.15" />
    <path fill="#2d2d2d" fill-rule="evenodd" d="M 132.54 74.15 L 140.82 74.15 C 143.22 74.15 146.31 74.78 146.31 78.08 C 146.31 79.64 145.35 80.81 143.94 81.23 L 143.94 81.29 C 145.56 81.59 146.97 82.82 146.97 84.8 C 146.97 87.77 144.36 89.09 141.21 89.09 L 132.54 89.09 L 132.54 74.15 L 132.54 74.15 Z M 139.74 80.18 C 140.7 80.18 141.63 79.73 141.63 78.62 C 141.63 77.57 140.73 77.15 139.53 77.15 L 137.34 77.15 L 137.34 80.18 L 139.74 80.18 L 139.74 80.18 Z M 139.77 86.06 C 141.03 86.06 142.05 85.52 142.05 84.38 C 142.05 83.15 140.94 82.73 139.71 82.73 L 137.34 82.73 L 137.34 86.06 L 139.77 86.06 L 139.77 86.06 Z M 139.77 86.06" />
    <path fill="#2d2d2d" fill-rule="evenodd" d="M 149.34 81.68 C 149.34 76.79 152.88 73.67 157.41 73.67 C 161.82 73.67 164.91 76.7 164.91 81.8 C 164.91 82.19 164.91 82.61 164.88 82.97 L 154.05 82.97 C 154.2 84.62 155.85 85.79 157.62 85.79 C 159.18 85.79 160.26 85.13 160.92 84.23 L 164.34 86.39 C 162.93 88.43 160.59 89.57 157.56 89.57 C 153.06 89.57 149.34 86.72 149.34 81.68 L 149.34 81.68 Z M 160.38 79.91 C 160.38 78.35 159.39 77.06 157.44 77.06 C 155.55 77.06 154.17 78.38 154.05 79.91 L 160.38 79.91 L 160.38 79.91 Z M 160.38 79.91" />
    <path fill="#2d2d2d" fill-rule="evenodd" d="M 170.76 77.93 L 166.29 77.93 L 166.29 74.15 L 180.18 74.15 L 180.18 77.93 L 175.71 77.93 L 175.71 89.09 L 170.76 89.09 L 170.76 77.93" />
    <path fill="#2d2d2d" fill-rule="evenodd" d="M 183.96 92.81 L 179.91 92.81 L 182.16 84.29 L 186.87 84.29 L 183.96 92.81" />
    <path fill="#2d2d2d" fill-rule="evenodd" d="M 71.13 98.85 L 78.93 98.85 C 83.58 98.85 87.24 100.53 87.24 105.39 C 87.24 110.31 83.25 112.08 78.81 112.08 L 76.26 112.08 L 76.26 120.09 L 71.13 120.09 L 71.13 98.85 L 71.13 98.85 Z M 78.42 108 C 80.34 108 82.11 107.43 82.11 105.42 C 82.11 103.38 80.34 102.99 78.51 102.99 L 76.26 102.99 L 76.26 108 L 78.42 108 L 78.42 108 Z M 78.42 108" />
    <path fill="#2d2d2d" fill-rule="evenodd" d="M 87.81 112.68 C 87.81 107.79 91.35 104.67 95.88 104.67 C 100.29 104.67 103.38 107.7 103.38 112.8 C 103.38 113.19 103.38 113.61 103.35 113.97 L 92.52 113.97 C 92.67 115.62 94.32 116.79 96.09 116.79 C 97.65 116.79 98.73 116.13 99.39 115.23 L 102.81 117.39 C 101.4 119.43 99.06 120.57 96.03 120.57 C 91.53 120.57 87.81 117.72 87.81 112.68 L 87.81 112.68 Z M 98.85 110.91 C 98.85 109.35 97.86 108.06 95.91 108.06 C 94.02 108.06 92.64 109.38 92.52 110.91 L 98.85 110.91 L 98.85 110.91 Z M 98.85 110.91" />
    <path fill="#2d2d2d" fill-rule="evenodd" d="M 106.44 105.15 L 117.39 105.15 L 117.39 108.93 L 111.39 108.93 L 111.39 120.09 L 106.44 120.09 L 106.44 105.15" />
    <path fill="#2d2d2d" fill-rule="evenodd" d="M 127.68 120.6 C 122.16 120.51 118.83 117.48 118.83 112.65 C 118.83 107.82 122.19 104.85 127.68 104.73 L 127.68 97.41 L 132.63 97.41 L 132.63 104.73 C 138.12 104.85 141.48 107.82 141.48 112.65 C 141.48 117.48 138.15 120.51 132.63 120.6 L 132.63 127.29 L 127.68 127.29 L 127.68 120.6 L 127.68 120.6 Z M 127.68 108.75 C 125.04 108.84 123.81 110.37 123.81 112.62 C 123.81 114.78 124.95 116.43 127.68 116.52 L 127.68 108.75 L 127.68 108.75 Z M 136.5 112.62 C 136.5 110.37 135.27 108.84 132.63 108.75 L 132.63 116.52 C 135.36 116.43 136.5 114.78 136.5 112.62 L 136.5 112.62 Z M 136.5 112.62" />
    <path fill="#2d2d2d" fill-rule="evenodd" d="M 143.82 112.56 C 143.82 107.67 147.6 104.67 152.1 104.67 C 156.63 104.67 160.41 107.67 160.41 112.56 C 160.41 117.45 156.63 120.57 152.1 120.57 C 147.6 120.57 143.82 117.45 143.82 112.56 L 143.82 112.56 Z M 155.67 112.56 C 155.67 110.64 154.41 108.75 152.1 108.75 C 149.79 108.75 148.59 110.64 148.59 112.56 C 148.59 114.48 149.82 116.43 152.13 116.43 C 154.44 116.43 155.67 114.48 155.67 112.56 L 155.67 112.56 Z M 155.67 112.56" />
    <path fill="#2d2d2d" fill-rule="evenodd" d="M 163.53 105.15 L 168.21 105.15 L 168.21 106.98 L 168.3 106.98 C 169.2 105.78 170.88 104.73 173.07 104.73 C 177.42 104.73 180.15 108.39 180.15 112.56 C 180.15 116.73 177.54 120.51 173.04 120.51 C 171.21 120.51 169.44 119.73 168.51 118.44 L 168.45 118.44 L 168.45 127.29 L 163.53 127.29 L 163.53 105.15 L 163.53 105.15 Z M 175.38 112.56 C 175.38 110.64 174.21 108.75 171.87 108.75 C 169.65 108.75 168.27 110.7 168.27 112.59 C 168.27 114.54 169.65 116.43 171.87 116.43 C 174.21 116.43 175.38 114.51 175.38 112.56 L 175.38 112.56 Z M 175.38 112.56" />
    <path fill="#2d2d2d" fill-rule="evenodd" d="M 182.4 126.96 L 182.94 122.82 C 183.42 122.97 184.05 123.09 184.53 123.09 C 186.06 123.09 186.57 122.37 187.05 121.08 L 187.53 119.85 L 181.29 105.15 L 186.75 105.15 L 190.08 114.75 L 190.17 114.75 L 193.14 105.15 L 198.36 105.15 L 191.67 122.34 C 190.47 125.46 188.85 127.29 185.1 127.29 C 184.17 127.29 183.12 127.14 182.4 126.96" />
    <path fill="#2d2d2d" fill-rule="evenodd" d="M 200.25 105.15 L 206.76 105.15 L 210.39 114.06 L 210.45 114.06 L 213.87 105.15 L 220.44 105.15 L 220.44 120.09 L 215.7 120.09 L 215.7 110.28 L 215.61 110.28 L 211.77 120.09 L 208.77 120.09 L 204.96 110.25 L 204.87 110.25 L 204.87 120.09 L 200.25 120.09 L 200.25 105.15" />
    <path fill="#2d2d2d" fill-rule="evenodd" d="M 227.7 120.39 C 226.14 120.39 224.79 119.16 224.79 117.57 C 224.79 116.01 226.08 114.72 227.7 114.72 C 229.32 114.72 230.64 115.98 230.64 117.54 C 230.64 119.13 229.32 120.39 227.7 120.39 L 227.7 120.39 Z M 225.18 98.85 L 230.22 98.85 L 230.22 112.98 L 225.18 112.98 L 225.18 98.85 Z M 225.18 98.85" />
    <path fill="#67bca0" fill-rule="evenodd" d="M 268.44 32.05 C 267.85 32.34 264.91 34.83 263.79 32.82 C 262.66 30.8 259.87 31.51 258.55 31.95 C 257.22 32.39 253.97 34.53 252.68 32.78 C 251.64 31.36 249.79 31.78 248.8 31.69 L 248.8 213.91 L 270.74 213.91 L 270.74 31.61 C 270.3 31.41 269.02 31.76 268.44 32.05" />
    <path fill="#251a18" fill-rule="evenodd" d="M 255.24 12.93 L 264.3 12.93 L 259.77 0.35 L 255.24 12.93" />
    <path fill="#fce4ab" fill-rule="evenodd" d="M 255.24 12.8 L 248.8 31.61 L 248.8 31.69 C 249.79 31.78 251.54 32.15 252.59 33.57 C 253.87 35.31 255.78 34.22 257.29 32.59 C 258.23 31.56 261.18 31.63 263.43 33.31 C 266.3 35.46 267.41 32.39 268.44 32.05 C 269.06 31.84 270.3 31.41 270.74 31.61 L 264.3 12.8 L 255.24 12.8" />
    <path fill="#4d907b" fill-rule="evenodd" d="M 263.79 213.72 L 256.15 213.72 L 256.15 33.73 C 256.15 33.73 257.27 31.81 259.96 31.81 C 262.85 31.81 263.79 33.75 263.79 33.75 L 263.79 213.72" />
    <path fill="#4d907b" fill-rule="evenodd" d="M 270.63 213.52 L 266.81 213.52 L 266.81 33.54 C 266.81 33.54 268.06 31.61 270.63 31.61" />
    <path fill="#4d907b" fill-rule="evenodd" d="M 248.79 213.57 L 252.61 213.57 L 252.61 33.58 C 252.61 33.58 251.28 31.66 248.79 31.66" />
    <path fill="#525457" fill-rule="evenodd" d="M 248.25 207 L 271.58 207 L 271.58 221.44 L 248.25 221.44 L 248.25 207 Z M 248.25 207" />
    <path fill="#f27029" fill-rule="evenodd" d="M 271.29 221.6 L 271.29 234.61 C 271.29 236.9 269.5 238.78 267.32 238.78 L 253.01 238.78 C 250.83 238.78 249.04 236.9 249.04 234.61 L 249.04 221.6" />
    <path fill="#f27029" fill-rule="evenodd" d="M 28.94 7.69 L 36.27 14.47 L 43.74 7.84 L 47.68 17.02 L 57.2 14.01 L 57.06 24 L 66.99 25.12 L 62.8 34.18 L 71.41 39.24 L 63.9 45.82 L 69.71 53.95 L 60.17 56.91 L 62.17 66.69 L 52.25 65.51 L 50.1 75.26 L 41.52 70.16 L 35.59 78.19 L 29.83 70.03 L 21.14 74.96 L 19.19 65.16 L 9.26 66.13 L 11.46 56.39 L 1.99 53.23 L 7.97 45.23 L 0.6 38.49 L 9.31 33.61 L 5.33 24.46 L 15.27 23.55 L 15.35 13.57 L 24.8 16.78 L 28.94 7.69" />
    <path fill="#ffffff" fill-rule="evenodd" d="M 35.06 54.72 L 35.06 35.41 L 30.16 39.2 L 26.93 34.78 L 35.58 28.43 L 41.3 28.43 L 41.3 54.72 L 35.06 54.72" />
    <path fill="#4a66a1" fill-rule="evenodd" d="M 153.11 215.47 L 187.66 215.47 L 187.66 245.14 L 153.11 245.14 L 153.11 215.47 Z M 153.11 215.47" />
</svg>