<!-- Generator: Avocode 2.2.1-ae398a7 - http://avocode.com -->
<svg height="37" width="37" xmlns:xlink="http://www.w3.org/1999/xlink" xmlns="http://www.w3.org/2000/svg" viewBox="0 0 37 37">
    <path fill="#bcbcbc" fill-rule="evenodd" d="M 26.66 14.79 L 28 10.05 C 27.67 10.02 26.42 10.02 26.1 10.02 C 23.66 10.02 21.44 11.29 20.16 13.68 L 20.06 13.68 C 20.2 12.43 20.27 11.21 20.38 10 L 15.83 10 C 15.65 11.55 15.43 14.57 14.92 17.29 L 13 28 L 18.25 28 L 19.4 21.3 C 20.06 17.77 21.62 14.75 24.97 14.75 C 25.26 14.75 26.41 14.75 26.66 14.79" />
    <path stroke-linejoin="miter" stroke-linecap="butt" stroke-width="1.4" stroke="#bcbcbc" fill="none" fill-rule="evenodd" d="M 0 0 L 37 0 L 37 37 L 0 37 L 0 0 Z M 0 0" />
</svg>