<?xml version="1.0" encoding="UTF-8" standalone="no"?>
<!-- Created with Inkscape (http://www.inkscape.org/) -->

<svg
   xmlns:dc="http://purl.org/dc/elements/1.1/"
   xmlns:cc="http://creativecommons.org/ns#"
   xmlns:rdf="http://www.w3.org/1999/02/22-rdf-syntax-ns#"
   xmlns:svg="http://www.w3.org/2000/svg"
   xmlns="http://www.w3.org/2000/svg"
   version="1.1"
   width="59.110176"
   height="24.676212"
   viewBox="0 0 59.110176 24.676212"
   id="svg2">
  <metadata
     id="metadata10">
    <rdf:RDF>
      <cc:Work
         rdf:about="">
        <dc:format>image/svg+xml</dc:format>
        <dc:type
           rdf:resource="http://purl.org/dc/dcmitype/StillImage" />
        <dc:title></dc:title>
      </cc:Work>
    </rdf:RDF>
  </metadata>
  <defs
     id="defs8" />
  <path
     d="M 7.1601747,24.27 C 3.3101747,23.12 1.7468408e-4,20.09 1.7468408e-4,16.06 -0.03982532,10.37 6.8001747,2.98 9.7501747,0 10.380175,4.73 13.110175,8.12 13.240175,8.26 l 0.67,2.59 0.72,-2.55 c 0.04,-0.04 0.89,-0.96 1.74,-2.61 3.13,4.08 4.74,7.61 4.74,10.32 0,2.57 -0.98,4.73 -2.86,6.29 -1.12,0.91 -2.51,1.6 -4.03,2.01 -1.04,0.32 -5.3600003,0.65 -7.0600003,-0.04"
     id="path4"
     style="fill:#000000;fill-rule:evenodd" />
  <path
     d="m 45.160175,24.27 c -3.85,-1.15 -7.16,-4.18 -7.16,-8.21 -0.04,-5.69 6.8,-13.08 9.75,-16.06 0.63,4.73 3.36,8.12 3.49,8.26 l 0.67,2.59 0.72,-2.55 c 0.04,-0.04 0.89,-0.96 1.74,-2.61 3.13,4.08 4.74,7.61 4.74,10.32 0,2.57 -0.98,4.73 -2.86,6.29 -1.12,0.91 -2.51,1.6 -4.03,2.01 -1.04,0.32 -5.36,0.65 -7.06,-0.04"
     id="path2987"
     style="fill:#ff661d;fill-opacity:1;fill-rule:evenodd" />
</svg>
