<?xml version="1.0" encoding="utf-8"?>
<!-- Generator: Avocode 2.3.2-e7da973 - http://avocode.com -->
<svg height="24" width="25" xmlns:xlink="http://www.w3.org/1999/xlink" xmlns="http://www.w3.org/2000/svg" viewBox="0 0 25 24">
    <path stroke-linejoin="round" stroke-linecap="round" stroke-width="1" stroke="#000000" fill="none" fill-rule="evenodd" d="M 19.48 6.5 L 21.48 6.5 L 21.48 16.5 L 1.49 16.5 L 1.49 10.5 C 1.49 8.29 3.28 6.5 5.49 6.5 L 15.48 6.5" />
    <path stroke-linejoin="round" stroke-linecap="round" stroke-width="1" stroke="#000000" fill="none" fill-rule="evenodd" d="M 12.49 16.5 L 12.49 23.5" />
    <path stroke-linejoin="round" stroke-linecap="round" stroke-width="1" stroke="#000000" fill="none" fill-rule="evenodd" d="M 17.48 9.5 L 17.48 0.5" />
    <path stroke-linejoin="round" stroke-linecap="round" stroke-width="1" stroke="#000000" fill="none" fill-rule="evenodd" d="M 12.49 3.5 L 17.48 3.5 L 17.48 0.5 L 12.49 0.5 L 12.49 3.5 Z M 12.49 3.5" />
    <path stroke-linejoin="round" stroke-linecap="round" stroke-width="1" stroke="#000000" fill="none" fill-rule="evenodd" d="M 23.48 15.5 L 21.48 15.5 L 21.48 9.5 L 24.48 9.5 L 23.48 15.5 L 23.48 15.5 Z M 23.48 15.5" />
</svg>