<?xml version="1.0" encoding="utf-8"?>
<!-- Generator: Adobe Illustrator 17.0.0, SVG Export Plug-In . SVG Version: 6.00 Build 0)  -->
<!DOCTYPE svg PUBLIC "-//W3C//DTD SVG 1.1//EN" "http://www.w3.org/Graphics/SVG/1.1/DTD/svg11.dtd">
<svg version="1.1" id="Layer_1" xmlns="http://www.w3.org/2000/svg" xmlns:xlink="http://www.w3.org/1999/xlink" x="0px" y="0px"
	 width="109px" height="115px" viewBox="0 0 109 115" enable-background="new 0 0 109 115" xml:space="preserve">
<path opacity="0.3" fill="#CFC9B7" d="M0.55,114.68l107.91-0.28v-6.42h-3.6l-0.28-57.76h3.34v-7.53H73.79v-29.3h3.88l-3.05-8.93
	h-8.6V0H12.2v4.47H4.43l-3.6,8.64h3.9l0.26,94.87H0.54L0.55,114.68z"/>
<path opacity="0.5" fill="#CFC9B7" d="M34.12,27.34h9.43V45.2h-9.43V27.34z"/>
<path opacity="0.5" fill="#CFC9B7" d="M52.43,27.34h9.43V45.2h-9.43V27.34z"/>
<path opacity="0.5" fill="#CFC9B7" d="M34.12,55.25h9.43V73.1h-9.43V55.25z"/>
<path opacity="0.5" fill="#CFC9B7" d="M52.43,55.25h9.43V73.1h-9.43V55.25z"/>
<path opacity="0.5" fill="#CFC9B7" d="M34.12,82.59h9.43v17.86h-9.43V82.59z"/>
<path opacity="0.5" fill="#CFC9B7" d="M15.81,27.34h9.43V45.2h-9.43V27.34z"/>
<path opacity="0.5" fill="#CFC9B7" d="M15.81,55.25h9.43V73.1h-9.43V55.25z"/>
<path opacity="0.5" fill="#CFC9B7" d="M15.81,82.59h9.43v17.86h-9.43V82.59z"/>
<path opacity="0.5" fill="#CFC9B7" d="M52.43,82.59h9.43v17.86h-9.43V82.59z"/>
<path opacity="0.5" fill="#CFC9B7" d="M72.4,92.64h7.77v7.81H72.4V92.64z"/>
<path opacity="0.5" fill="#CFC9B7" d="M72.4,77.57h7.77v7.81H72.4V77.57z"/>
<path opacity="0.5" fill="#CFC9B7" d="M72.4,62.5h7.77v7.81H72.4V62.5z"/>
<path opacity="0.5" fill="#CFC9B7" d="M87.38,92.64h7.77v7.81h-7.77V92.64z"/>
<path opacity="0.5" fill="#CFC9B7" d="M87.38,77.57h7.77v7.81h-7.77V77.57z"/>
<path opacity="0.5" fill="#CFC9B7" d="M87.38,62.5h7.77v7.81h-7.77V62.5z"/>
</svg>
