<?xml version="1.0" encoding="utf-8"?>
<!-- Generator: Avocode 2.3.2-e7da973 - http://avocode.com -->
<svg height="12" width="16" xmlns:xlink="http://www.w3.org/1999/xlink" xmlns="http://www.w3.org/2000/svg" viewBox="0 0 16 12">
    <path fill="#ffffff" fill-rule="evenodd" d="M 7.99 11.72 L 10.59 7.02 L 11.66 10.2 L 10.79 10.2 L 10.79 11.6 L 15.98 11.6 L 15.98 10.2 L 14.99 10.2 L 11.26 0 L 7.99 6.28 L 4.71 0 L 0.99 10.2 L 0 10.2 L 0 11.6 L 5.19 11.6 L 5.19 10.2 L 4.32 10.2 L 5.39 7.02 L 7.99 11.72" />
</svg>