<?xml version="1.0" encoding="utf-8"?>
<!-- Generator: Avocode 2.3.2-e7da973 - http://avocode.com -->
<svg height="16" width="16" xmlns:xlink="http://www.w3.org/1999/xlink" xmlns="http://www.w3.org/2000/svg" viewBox="0 0 16 16">
    <path fill="#ffffff" fill-rule="evenodd" d="M 1.99 0 C 0.89 0 0 0.89 0 1.99 L 0 14.01 C 0 15.11 0.89 16 1.99 16 L 14.01 16 C 15.11 16 16 15.11 16 14.01 L 16 1.99 C 16 0.89 15.11 0 14.01 0 L 1.99 0 Z M 12 9.94 C 12 9.26 11.84 8.72 11.52 8.32 C 11.19 7.92 10.76 7.65 10.22 7.52 L 10.22 7.47 C 10.6 7.29 10.89 7.01 11.1 6.63 C 11.31 6.25 11.42 5.81 11.42 5.33 C 11.42 4.9 11.34 4.54 11.19 4.21 C 11.04 3.89 10.81 3.63 10.49 3.44 C 10.21 3.26 9.9 3.14 9.57 3.09 C 9.24 3.03 8.76 3 8.12 3 L 5 3 L 5 13 L 8.53 13 C 9.13 13 9.62 12.94 10.01 12.81 C 10.41 12.69 10.77 12.48 11.09 12.18 C 11.37 11.93 11.59 11.63 11.75 11.25 C 11.92 10.87 12 10.44 12 9.94 Z M 12 9.94" />
    <path fill="#ffffff" fill-rule="evenodd" d="M 9.08 5.95 C 9.08 5.79 9.04 5.62 8.96 5.45 C 8.89 5.28 8.78 5.16 8.62 5.08 C 8.47 5.01 8.3 4.97 8.1 4.96 C 7.9 4.96 7.6 4.95 7.2 4.95 L 7.05 4.95 L 7.05 7.07 L 7.33 7.07 C 7.71 7.07 7.98 7.07 8.13 7.06 C 8.28 7.05 8.44 7 8.61 6.92 C 8.78 6.83 8.91 6.69 8.97 6.53 C 9.04 6.36 9.08 6.17 9.08 5.95 L 9.08 5.95 L 9.08 5.95 Z M 9.08 5.95" />
    <path fill="#ffffff" fill-rule="evenodd" d="M 9.63 10.01 C 9.63 9.71 9.58 9.47 9.47 9.29 C 9.36 9.11 9.19 8.98 8.96 8.89 C 8.83 8.83 8.64 8.8 8.41 8.8 C 8.17 8.79 7.85 8.78 7.46 8.78 L 7.05 8.78 L 7.05 11.29 L 7.16 11.29 C 7.75 11.29 8.15 11.29 8.37 11.27 C 8.59 11.26 8.82 11.21 9.05 11.09 C 9.25 10.99 9.4 10.85 9.49 10.66 C 9.59 10.47 9.63 10.26 9.63 10.01 L 9.63 10.01 L 9.63 10.01 Z M 9.63 10.01" />
</svg>