<?xml version="1.0" encoding="utf-8"?>
<!-- Generator: Avocode 2.3.2-e7da973 - http://avocode.com -->
<svg height="33" width="33" xmlns:xlink="http://www.w3.org/1999/xlink" xmlns="http://www.w3.org/2000/svg" viewBox="0 0 33 33">
    <path fill="#ffffff" fill-rule="evenodd" d="M 5.5 4 L 1 4 L 1 33 L 32 33 L 32 4 L 27 4" />
    <path stroke-linejoin="round" stroke-linecap="round" stroke-width="1" stroke="#39cb7d" fill="#ffffff" fill-rule="evenodd" d="M 27 6 L 22 6 L 22.07 0 L 27 0 L 27 6 Z M 27 6" />
    <path stroke-linejoin="round" stroke-linecap="round" stroke-width="1" stroke="#39cb7d" fill="#ffffff" fill-rule="evenodd" d="M 10 6 L 5 6 L 5.07 0 L 10 0 L 10 6 Z M 10 6" />
    <path stroke-linejoin="round" stroke-linecap="round" stroke-width="1" stroke="#39cb7d" fill="none" fill-rule="evenodd" d="M 0.5 10.5 L 32.5 10.5" />
</svg>