<?xml version="1.0" encoding="utf-8"?>
<!-- Generator: Avocode 2.3.2-e7da973 - http://avocode.com -->
<svg height="58" width="59" xmlns:xlink="http://www.w3.org/1999/xlink" xmlns="http://www.w3.org/2000/svg" viewBox="0 0 59 58">
    <path stroke-linejoin="round" stroke-linecap="round" stroke-width="1" stroke="#ffffff" fill="#ffffff" fill-rule="evenodd" d="M 10 5.5 L 0.5 5.5 L 0.5 57.5 L 58.5 57.5 L 58.5 5.5 L 48.5 5.5" />
    <path stroke-linejoin="round" stroke-linecap="round" stroke-width="1" stroke="#3bdf88" fill="#ffffff" fill-rule="evenodd" d="M 18 11 L 10 11 L 10 0 L 18 0 L 18 11 Z M 18 11" />
    <path stroke-linejoin="round" stroke-linecap="round" stroke-width="1" stroke="#3bdf88" fill="#ffffff" fill-rule="evenodd" d="M 49 11 L 41 11 L 41 0 L 49 0 L 49 11 Z M 49 11" />
    <path stroke-linejoin="round" stroke-linecap="round" stroke-width="1" stroke="#3bdf88" fill="none" fill-rule="evenodd" d="M 18 5.5 L 41 5.5" />
    <path stroke-linejoin="round" stroke-linecap="round" stroke-width="1" stroke="#3bdf88" fill="none" fill-rule="evenodd" d="M 0.5 17.5 L 58.5 17.5" />
</svg>