<?xml version="1.0" encoding="utf-8"?>
<!-- Generator: Avocode 2.3.2-e7da973 - http://avocode.com -->
<svg height="34" width="34" xmlns:xlink="http://www.w3.org/1999/xlink" xmlns="http://www.w3.org/2000/svg" viewBox="0 0 34 34">
    <path stroke-linejoin="miter" stroke-linecap="butt" stroke-width="1" stroke="#54d45a" fill="none" fill-rule="evenodd" d="M 17 29.54 L 12.6 33.42 L 10.73 27.86 L 4.98 29.02 L 6.14 23.27 L 0.58 21.4 L 4.46 17 L 0.58 12.6 L 6.14 10.73 L 4.98 4.98 L 10.73 6.14 L 12.6 0.58 L 17 4.46 L 21.4 0.58 L 23.27 6.14 L 29.02 4.98 L 27.86 10.73 L 33.42 12.6 L 29.54 17 L 33.42 21.4 L 27.86 23.27 L 29.02 29.02 L 23.27 27.86 L 21.4 33.42 L 17 29.54 Z M 17 29.54" />
    <path fill="#54d45a" fill-rule="evenodd" d="M 17.59 9.21 C 18.65 9.21 19.63 9.49 20.53 10.05 C 21.43 10.61 22.14 11.37 22.66 12.32 C 23.19 13.27 23.45 14.29 23.45 15.39 C 23.45 16.49 23.13 17.7 22.5 19.03 C 21.87 20.05 21.15 21.11 20.34 22.21 C 19.53 23.3 18.88 24.15 18.39 24.74 L 17.65 25.62 C 17.56 25.54 17.45 25.42 17.3 25.27 C 17.15 25.12 16.87 24.81 16.44 24.33 C 16.01 23.85 15.6 23.36 15.19 22.87 C 14.79 22.37 14.34 21.77 13.84 21.06 C 13.35 20.34 12.91 19.65 12.54 18.98 C 12 17.74 11.72 16.57 11.72 15.47 C 11.72 14.37 11.99 13.33 12.51 12.37 C 13.03 11.41 13.75 10.65 14.65 10.07 C 15.55 9.49 16.53 9.21 17.59 9.21 C 17.59 9.21 16.53 9.21 17.59 9.21 L 17.59 9.21 L 17.59 9.21 Z M 17.57 18.04 C 18.36 18.04 19.03 17.75 19.58 17.18 C 20.13 16.61 20.41 15.92 20.41 15.11 C 20.41 14.3 20.13 13.61 19.58 13.05 C 19.03 12.48 18.36 12.2 17.57 12.2 C 16.79 12.2 16.12 12.48 15.57 13.05 C 15.03 13.62 14.75 14.31 14.75 15.11 C 14.75 15.92 15.03 16.61 15.58 17.18 C 16.13 17.75 16.8 18.04 17.57 18.04 L 17.57 18.04 Z M 17.57 18.04" />
</svg>