<?xml version="1.0" encoding="utf-8"?>
<!-- Generator: Adobe Illustrator 17.0.0, SVG Export Plug-In . SVG Version: 6.00 Build 0)  -->
<!DOCTYPE svg PUBLIC "-//W3C//DTD SVG 1.1//EN" "http://www.w3.org/Graphics/SVG/1.1/DTD/svg11.dtd">
<svg version="1.1" id="Layer_1" xmlns="http://www.w3.org/2000/svg" xmlns:xlink="http://www.w3.org/1999/xlink" x="0px" y="0px"
	 width="130.667px" height="130.5px" viewBox="0 0 130.667 130.5" enable-background="new 0 0 130.667 130.5" xml:space="preserve">
<path fill="none" stroke="#2F76DC" stroke-linecap="round" stroke-linejoin="round" d="M16,27.095H1v-21h9.71l5.29,5.48V27.095
	L16,27.095z"/>
<path fill="none" stroke="#2F76DC" stroke-linecap="round" d="M13,24.095H4v-9h9V24.095z"/>
<path fill="#2F76DC" d="M66.34,26.758c0.01,0.04,0.04,0.08,0.06,0.11c0.02,0.02,0.03,0.04,0.04,0.05c0.02,0.02,0.04,0.03,0.05,0.04
	c0.04,0.03,0.07,0.05,0.11,0.07c0.01,0,0.01,0,0.01,0c0.01,0,0.02,0,0.03,0.01c0.04,0.01,0.09,0.02,0.13,0.01
	c0.05,0,0.09,0,0.13-0.02c0.01,0,0.01,0,0.01,0h0.02c0.02-0.01,0.03-0.01,0.05-0.02l6.31-1.79c0.07-0.02,0.12-0.06,0.16-0.11
	c0,0,0.01,0,0.01-0.01l0,0l0,0c0.01,0,0.01,0,0.01,0l12.81-12.74c0.04-0.04,0.06-0.08,0.08-0.13c0.59-0.64,0.95-1.49,0.95-2.43
	c0-2.02-1.65-3.66-3.68-3.66c-0.98,0-1.87,0.4-2.53,1.03c-0.01,0-0.01,0-0.02,0.01l-0.14,0.13c-0.02,0.02-0.04,0.04-0.06,0.07
	l-12.6,12.55l0,0c0,0.01,0,0.01-0.01,0.01l0,0c0,0,0,0.01-0.01,0.01c-0.04,0.04-0.08,0.09-0.11,0.15l-1.8,6.29
	c-0.01,0.02-0.01,0.03-0.01,0.05l-0.01,0.02c0,0,0,0,0,0.01c-0.01,0.04-0.02,0.08-0.02,0.13c0,0.04,0.01,0.08,0.02,0.13
	c0,0,0,0.01,0,0.02S66.34,26.758,66.34,26.758L66.34,26.758z M73.26,24.038l-1.08-2.19c0,0,0,0,0-0.01l10.8-10.75l1.66,1.65
	L73.26,24.038L73.26,24.038z M81.56,7.948l0.01,0.01c0.51-0.56,1.23-0.91,2.05-0.91c1.54,0,2.79,1.24,2.79,2.78
	c0,0.81-0.35,1.53-0.9,2.04l0,0l-0.24,0.24l-3.94-3.92L81.56,7.948L81.56,7.948z M80.7,8.818l1.65,1.64l-10.8,10.76
	c-0.01-0.01-0.01-0.01-0.01-0.01l-2.2-1.07L80.7,8.818L80.7,8.818z M68.9,20.898l2.42,1.16c0,0.02,1.17,2.42,1.17,2.42l-2.79,0.79
	l-1.6-1.59L68.9,20.898L68.9,20.898z M67.82,24.658l0.9,0.89l-1.26,0.36L67.82,24.658L67.82,24.658z"/>
<path fill="none" stroke="#2F76DC" stroke-linecap="round" d="M5.5,50.034v9.5h5v-7h5v7h5v-9.5"/>
<path fill="none" stroke="#2F76DC" stroke-linecap="round" stroke-linejoin="round" d="M1,50.034l11.5-11.5l11.5,11.5"/>
<path fill="none" stroke="#2F76DC" stroke-linecap="round" d="M17,39.534h2.5v3.5"/>
<path fill="none" stroke="#2F76DC" stroke-linecap="round" stroke-linejoin="round" d="M50.547,59.027h-14v-18h14V59.027z"/>
<path fill="none" stroke="#2F76DC" stroke-linecap="round" stroke-linejoin="round" d="M47.547,41.027h-8v-3h8V41.027z"/>
<path fill="none" stroke="#2F76DC" stroke-linecap="round" stroke-linejoin="round" d="M33.547,41.027h20"/>
<path fill="none" stroke="#2F76DC" stroke-linecap="round" stroke-linejoin="round" d="M39.547,45.027v11"/>
<path fill="none" stroke="#2F76DC" stroke-linecap="round" stroke-linejoin="round" d="M43.577,45.027v11"/>
<path fill="none" stroke="#2F76DC" stroke-linecap="round" stroke-linejoin="round" d="M47.547,45.027v11"/>
<path fill="none" stroke="#2F76DC" stroke-linecap="round" stroke-linejoin="round" d="M16,73.829c0,1.1-3.36,2-7.5,2
	s-7.5-0.9-7.5-2s3.36-2,7.5-2S16,72.729,16,73.829L16,73.829z"/>
<path fill="none" stroke="#2F76DC" stroke-linecap="round" stroke-linejoin="round" d="M16,73.829v3c0,1.1-3.36,2-7.5,2
	s-7.5-0.9-7.5-2v-3"/>
<path fill="none" stroke="#2F76DC" stroke-linecap="round" stroke-linejoin="round" d="M24,83.829c0,1.1-3.36,2-7.5,2
	s-7.5-0.9-7.5-2s3.36-2,7.5-2S24,82.729,24,83.829L24,83.829z"/>
<path fill="none" stroke="#2F76DC" stroke-linecap="round" stroke-linejoin="round" d="M24,83.829v3c0,1.1-3.36,2-7.5,2
	s-7.5-0.9-7.5-2v-3"/>
<path fill="none" stroke="#2F76DC" stroke-linecap="round" stroke-linejoin="round" d="M24,86.829v3c0,1.1-3.36,2-7.5,2
	s-7.5-0.9-7.5-2v-3"/>
<path fill="none" stroke="#2F76DC" stroke-linecap="round" stroke-linejoin="round" d="M16,76.829v3c0,1.1-3.36,2-7.5,2
	s-7.5-0.9-7.5-2v-3"/>
<path fill="none" stroke="#2F76DC" stroke-linecap="round" stroke-linejoin="round" d="M1,79.829v3c0,1.1,3.36,2,7.5,2H9"/>
<path fill="none" stroke="#2F76DC" stroke-linecap="round" stroke-linejoin="round" d="M1,82.829v3c0,1.1,3.36,2,7.5,2H9"/>
<path fill="none" stroke="#2F76DC" stroke-linecap="round" stroke-linejoin="round" d="M109.877,75.843v15.08"/>
<path fill="none" stroke="#2F76DC" stroke-linecap="round" stroke-linejoin="round" d="M106.957,90.923h5.82"/>
<path fill="none" stroke="#2F76DC" stroke-linecap="round" stroke-linejoin="round" d="M99.177,81.923l3.41-7.97l3.39,7.97"/>
<path fill="none" stroke="#2F76DC" stroke-linecap="round" stroke-linejoin="round" d="M111.337,74.383c0,0.81-0.65,1.46-1.46,1.46
	c-0.8,0-1.46-0.65-1.46-1.46s0.66-1.46,1.46-1.46C110.687,72.923,111.337,73.573,111.337,74.383L111.337,74.383z"/>
<path fill="none" stroke="#2F76DC" stroke-linecap="round" stroke-linejoin="round" d="M102.587,85.573c1.88,0,3.4-1.53,3.4-3.65
	h-6.81C99.177,84.043,100.707,85.573,102.587,85.573L102.587,85.573z"/>
<path fill="none" stroke="#2F76DC" stroke-linecap="round" stroke-linejoin="round" d="M121.557,81.923l-3.41-7.99l-3.4,7.99"/>
<path fill="none" stroke="#2F76DC" stroke-linecap="round" stroke-linejoin="round" d="M118.147,85.573c-1.88,0-3.4-1.53-3.4-3.65
	h6.81C121.557,84.043,120.037,85.573,118.147,85.573L118.147,85.573z"/>
<path fill="none" stroke="#2F76DC" stroke-linecap="round" stroke-linejoin="round" d="M108.397,73.943h-7.3"/>
<path fill="none" stroke="#2F76DC" stroke-linecap="round" stroke-linejoin="round" d="M111.337,73.923h8.27"/>
<path fill="none" stroke="#2F76DC" stroke-linecap="round" stroke-linejoin="round" d="M45.522,83.659l-11.98-5.23v8.38l11.98,5.23
	V83.659L45.522,83.659z"/>
<path fill="none" stroke="#2F76DC" stroke-linecap="round" stroke-linejoin="round" d="M57.502,78.429l-11.98,5.23v8.38l11.98-5.23
	V78.429L57.502,78.429z"/>
<path fill="none" stroke="#2F76DC" stroke-linecap="round" stroke-linejoin="round" d="M48.652,78.949c0,0.87-1.4,1.57-3.13,1.57
	s-3.12-0.7-3.12-1.57s1.39-1.57,3.12-1.57S48.652,78.079,48.652,78.949L48.652,78.949z"/>
<path fill="none" stroke="#2F76DC" stroke-linecap="round" stroke-linejoin="round" d="M48.652,73.189c0,0.87-1.4,1.57-3.13,1.57
	s-3.12-0.7-3.12-1.57s1.39-1.57,3.12-1.57S48.652,72.319,48.652,73.189L48.652,73.189z"/>
<path fill="none" stroke="#2F76DC" stroke-linecap="round" stroke-linejoin="round" d="M55.942,76.329c0,0.87-1.4,1.57-3.13,1.57
	c-1.72,0-3.12-0.7-3.12-1.57s1.4-1.57,3.12-1.57C54.542,74.759,55.942,75.459,55.942,76.329L55.942,76.329z"/>
<path fill="none" stroke="#2F76DC" stroke-linecap="round" stroke-linejoin="round" d="M41.872,76.329c0,0.87-1.39,1.57-3.12,1.57
	s-3.13-0.7-3.13-1.57s1.4-1.57,3.13-1.57C40.482,74.759,41.872,75.459,41.872,76.329L41.872,76.329z"/>
<path fill="none" stroke="#2F76DC" stroke-linecap="round" stroke-linejoin="round" d="M36.222,77.249l-2.68,1.18"/>
<path fill="none" stroke="#2F76DC" stroke-linecap="round" stroke-linejoin="round" d="M43.162,74.219l-2.24,0.98"/>
<path fill="none" stroke="#2F76DC" stroke-linecap="round" stroke-linejoin="round" d="M50.412,75.329l-2.53-1.11"/>
<path fill="none" stroke="#2F76DC" stroke-linecap="round" stroke-linejoin="round" d="M57.502,78.429l-2.4-1.05"/>
<path fill="none" stroke="#2F76DC" stroke-linecap="round" stroke-linejoin="round" d="M113.847,124.997h-9v-19h9V124.997z"/>
<path fill="none" stroke="#2F76DC" stroke-linecap="round" stroke-linejoin="round" d="M119.847,114.997h-4v10h4V114.997z"/>
<path fill="none" stroke="#2F76DC" stroke-linecap="round" stroke-linejoin="round" d="M102.847,114.997h-4v10h4V114.997z"/>
<path fill="none" stroke="#2F76DC" stroke-linecap="round" stroke-linejoin="round" d="M101.847,114.997v-1"/>
<path fill="none" stroke="#2F76DC" stroke-linecap="round" stroke-linejoin="round" d="M116.847,114.997v-1"/>
<path fill="none" stroke="#2F76DC" stroke-linecap="round" stroke-linejoin="round" d="M110.847,103.997h-3v2h3V103.997z"/>
<path fill="none" stroke="#2F76DC" stroke-linecap="round" stroke-linejoin="round" d="M109.847,103.997v-2"/>
<path fill="none" stroke="#2F76DC" stroke-linecap="round" stroke-linejoin="round" d="M106.847,108.997h5"/>
<path fill="none" stroke="#2F76DC" stroke-linecap="round" stroke-linejoin="round" d="M106.847,111.997h5"/>
<path fill="none" stroke="#2F76DC" stroke-linecap="round" stroke-linejoin="round" d="M106.847,114.997h5"/>
<path fill="none" stroke="#2F76DC" stroke-linecap="round" stroke-linejoin="round" d="M106.847,117.997h5"/>
<path fill="none" stroke="#2F76DC" stroke-linecap="round" stroke-linejoin="round" d="M106.847,120.997h5"/>
<path fill="#2F76DC" d="M121.197,25.423h-22.04c-0.27,0-0.48-0.21-0.48-0.48v-2.87c0-1.32,1.07-2.4,2.4-2.4h4.64
	c3.15-2.19,1.71-5.38,0.54-7.94c-0.49-1.08-0.87-1.92-0.87-2.6c0-3.12,2.41-4.76,4.79-4.76s4.79,1.64,4.79,4.76
	c0,0.67-0.38,1.52-0.87,2.59c-1.16,2.57-2.61,5.76,0.54,7.95h4.64c1.33,0,2.4,1.08,2.4,2.4v2.87
	C121.677,25.213,121.467,25.423,121.197,25.423L121.197,25.423z M99.637,24.472h21.08v-2.4c0-0.79-0.64-1.44-1.44-1.44h-4.79
	c-0.09,0-0.18-0.03-0.26-0.08c-3.98-2.64-2.19-6.6-1-9.23c0.4-0.88,0.78-1.72,0.78-2.19c0-2.61-1.98-3.8-3.83-3.8
	s-3.83,1.19-3.83,3.8c0,0.47,0.38,1.31,0.78,2.2c1.19,2.62,2.99,6.57-1,9.22c-0.08,0.05-0.17,0.08-0.26,0.08h-4.79
	c-0.8,0-1.44,0.65-1.44,1.44L99.637,24.472L99.637,24.472z"/>
<path fill="none" stroke="#2F76DC" d="M55.027,8.095h-19.11l-2.35,5.24l-0.02,0.13c0,1.19,0.61,2.16,1.87,2.18v11.45h20v-11.45
	c1.27,0,1.88-0.98,1.88-2.18l-2.27-4.89V8.095z M38.417,22.095v-7c0.26-0.17-1.17,0.26-1,0c0.42,0.63,1.58,1.09,2.4,1.09
	c0.8,0,1.45-0.96,1.87-1.59c0.42,0.63,1.06,1.59,1.87,1.59s1.45-0.96,1.87-1.59c0.42,0.63,1.18,1.59,1.99,1.59s1.5-1.59,1.5-1.59
	s1,1.59,2.57,1.59s1.51-0.46,1.93-1.09c0.16,0.25,0.5,0.67-1,0v7H38.417z M36.417,6.095h18v2h-18V6.095z"/>
<path fill="none" stroke="#2F76DC" d="M10.41,127.667c0.01-0.86-0.01-0.74-0.02-1.63c-0.07-5.91-0.4-12.48-0.96-16.87
	c-0.5-3.93-3.59-7.69-1.02-9c1.94-0.99,3.38,1.36,3,2.5c-1,3-1.98,4.53-1.98,14c0,4.5,0.98-4.5-1.52,10c0,0-1,4.5-3.5,1"/>
<path fill="#F9F9F9" stroke="#2F76DC" d="M9.41,119.597l-2.39,2.23l-0.82-3.17l-3.21,0.58l1.02-3.11L1,114.877l2.54-2.05l-1.86-2.69
	l3.25-0.36l-0.12-3.26l2.93,1.46l1.67-2.81l1.67,2.81l2.93-1.46l-0.12,3.26l3.25,0.36l-1.86,2.69l2.54,2.05l-3.01,1.25l1.02,3.11
	l-3.21-0.58l-0.82,3.17L9.41,119.597z"/>
<path fill="none" stroke="#2F76DC" stroke-linecap="round" stroke-linejoin="round" d="M35.967,126.747h21 M39.567,126.747v-18.5
	c0,0,0.59,0.79,0.9-0.5c0.17-0.71,0.55-5.5,0.55-5.5s-0.1,0.09,0,0.5c0.39,1.59,1.45,5.5,1.45,5.5v18.5 M57.467,108.817h-24v2.93
	h3.94v-2.93 M39.467,108.837l3,2.91h12l3.12-2.93l-16.62-6.57l-6.5,6.57 M46.467,126.247v-5.5h5.94v-2h3.06v7.5 M49.477,126.247
	v-1.47h3.05v1.47 M52.967,122.727h-4 M56.467,114.747c0,2-0.98,2-1.5,2s-1.5-0.48-1.5-1s-0.5-2,1-2v-1.5"/>
<path fill="none" stroke="#2F76DC" d="M66.227,104.955c0-1.65,1.35-2.99,3.01-2.99h14.98c1.66,0,3.01,1.34,3.01,2.99v19.02
	c0,1.65-1.35,2.99-3.01,2.99h-14.98c-1.66,0-3.01-1.34-3.01-2.99V104.955z"/>
<path fill="#2F76DC" d="M72.227,119.965h10v1h-10V119.965z"/>
<path fill="none" stroke="#2F76DC" d="M82.007,111.745c0,2.77-2.24,5.02-5.01,5.02c-2.77,0-4.99-2.34-4.99-5.11
	c0-2.7,2.12-4.78,4.79-4.88c0.07-0.01,0.14-0.01,0.21-0.01C79.777,106.765,82.007,108.975,82.007,111.745L82.007,111.745z"/>
<path fill="none" stroke="#2F76DC" d="M76.797,106.775c-2.61,2.82-2.61,6.51,0,9.99"/>
<path fill="none" stroke="#2F76DC" d="M77.227,106.775c2.61,2.82,2.61,6.51,0,9.99"/>
<path fill="none" stroke="#2F76DC" d="M72.227,111.465h9.5"/>
<path fill="none" stroke="#2F76DC" stroke-linecap="round" stroke-linejoin="round" d="M79.63,47.214c1.16,1.17,1.16,3.05,0,4.21
	s-3.04,1.16-4.21,0c-1.16-1.16-1.16-3.04,0-4.21C76.59,46.054,78.47,46.054,79.63,47.214L79.63,47.214z"/>
<path fill="none" stroke="#2F76DC" stroke-linecap="round" stroke-linejoin="round" d="M77.36,46.354l5.77-8.25
	c1.75,0,5.61,3.86,5.61,5.61l-8.25,5.77"/>
<path fill="none" stroke="#2F76DC" stroke-linecap="round" stroke-linejoin="round" d="M74.56,49.154l-8.25,5.77
	c0,1.75,3.86,5.61,5.61,5.61l5.77-8.25"/>
<path fill="none" stroke="#2F76DC" stroke-linecap="round" stroke-linejoin="round" d="M80.49,49.484l6.15,6.14h-2.81v2.81
	l-6.14-6.15"/>
<path fill="none" stroke="#2F76DC" stroke-linecap="round" stroke-linejoin="round" d="M76.19,93.128h-10v-1c0-0.55,0.45-1,1-1h8
	c0.55,0,1,0.45,1,1V93.128L76.19,93.128z"/>
<path fill="none" stroke="#2F76DC" stroke-linecap="round" stroke-linejoin="round" d="M75.19,91.128h-8v-1c0-0.55,0.45-1,1-1h6
	c0.55,0,1,0.45,1,1V91.128L75.19,91.128z"/>
<path fill="none" stroke="#2F76DC" stroke-linecap="round" stroke-linejoin="round" d="M81.69,76.518l-5.5,5.5l-3.5-3.5l5.5-5.5
	L81.69,76.518L81.69,76.518z"/>
<path fill="none" stroke="#2F76DC" stroke-linecap="round" stroke-linejoin="round" d="M72.69,78.518l-0.5-0.5
	c-0.94-0.94-2.44,0.55-1.5,1.5l4.5,4.5c0.94,0.94,2.45-0.56,1.5-1.5l-0.5-0.5"/>
<path fill="none" stroke="#2F76DC" stroke-linecap="round" stroke-linejoin="round" d="M81.69,76.518l0.5,0.5
	c0.94,0.94,2.45-0.56,1.5-1.5l-4.5-4.5c-0.94-0.94-2.44,0.55-1.5,1.5l0.5,0.5"/>
<path fill="none" stroke="#2F76DC" stroke-linecap="round" stroke-linejoin="round" d="M78.94,79.268l10.25,10.25"/>
<path fill="#2F76DC" d="M120.237,27.827h-20.12c-0.27,0-0.48-0.21-0.48-0.48v-1.92c0-0.26,0.21-0.47,0.48-0.47
	c0.26,0,0.48,0.21,0.48,0.47v1.44h19.16v-1.44c0-0.26,0.22-0.47,0.48-0.47c0.27,0,0.48,0.21,0.48,0.47v1.92
	C120.717,27.618,120.507,27.827,120.237,27.827L120.237,27.827z"/>
<path fill="none" stroke="#2F76DC" d="M111.797,59.469h5.35c1.09,0,1.99-0.9,1.99-2v-21h-20v21c0,1.1,0.89,2,1.99,2h6.05
	c0.67,0.46,1.5,1.06,1.93,1.53c0.31,0.35,0.34,1.5,0.34,1.5s1.34-2.2,2.01-2.8C111.557,59.609,111.667,59.529,111.797,59.469z"/>
<path fill="none" stroke="#2F76DC" d="M107.637,46.569l-4-1.6c0,0-1.5,5.21,4,5.21"/>
<path fill="none" stroke="#2F76DC" d="M110.447,46.569l4-1.6c0,0,1.5,5.21-4,5.21"/>
<path fill="none" stroke="#2F76DC" d="M106.637,43.969c0,0.5,1,1.5,1.5,2S106.637,43.469,106.637,43.969z"/>
<path fill="none" stroke="#2F76DC" d="M110.637,43.969c0,0.5,1,1.5,1.5,2S110.637,43.469,110.637,43.969z"/>
<path fill="none" stroke="#2F76DC" d="M113.687,49.469c-1.96,0.5-2.96,1.5-2.96,2s1.41-0.5,2.96,1.5
	C115.227,54.969,115.637,48.969,113.687,49.469z"/>
<path fill="none" stroke="#2F76DC" d="M107.097,49.499c-1.96,0.5-2.96,1.5-2.96,2s1.41-0.5,2.96,1.5
	C108.637,54.999,109.047,48.999,107.097,49.499z"/>
<path fill="none" stroke="#2F76DC" d="M109.137,44.469c0.55,0,1-0.45,1-1s-0.45-1-1-1s-1,0.45-1,1S108.587,44.469,109.137,44.469z"
	/>
<path fill="none" stroke="#2F76DC" d="M109.387,51.469c0.14,0,0.25-0.22,0.25-0.5s-0.11-0.5-0.25-0.5s-0.25,0.22-0.25,0.5
	S109.247,51.469,109.387,51.469z"/>
<line fill="none" stroke="#2F76DC" stroke-linecap="round" x1="4" y1="18" x2="13" y2="18"/>
<line fill="none" stroke="#2F76DC" stroke-linecap="round" x1="4" y1="21" x2="12.5" y2="21"/>
<line fill="none" stroke="#2F76DC" stroke-linecap="round" x1="7.75" y1="15.095" x2="7.75" y2="24.095"/>
</svg>
