<?xml version="1.0" encoding="utf-8"?>
<!-- Generator: Adobe Illustrator 17.0.0, SVG Export Plug-In . SVG Version: 6.00 Build 0)  -->
<!DOCTYPE svg PUBLIC "-//W3C//DTD SVG 1.1//EN" "http://www.w3.org/Graphics/SVG/1.1/DTD/svg11.dtd">
<svg version="1.1" id="Layer_1" xmlns="http://www.w3.org/2000/svg" xmlns:xlink="http://www.w3.org/1999/xlink" x="0px" y="0px"
	 width="34.583px" height="37.167px" viewBox="0 -0.5 34.583 37.167" enable-background="new 0 -0.5 34.583 37.167"
	 xml:space="preserve">
<path fill="none" stroke="#9D9D9D" stroke-linecap="round" stroke-linejoin="round" d="M14,29.46h13l-4.03-8.92l-3.59,5.95
	l-2.24-2.12L14,29.46L14,29.46z"/>
<path fill="none" stroke="#9D9D9D" stroke-linecap="round" stroke-linejoin="round" d="M18.85,20.7c0,0.94-0.81,1.7-1.8,1.7
	c-0.99,0-1.79-0.76-1.79-1.7c0-0.94,0.8-1.7,1.79-1.7C18.04,19,18.85,19.76,18.85,20.7L18.85,20.7z"/>
<path fill="none" stroke="#9D9D9D" stroke-linecap="round" stroke-linejoin="round" d="M34,36H7V0h17l10,9V36L34,36z"/>
<path fill="none" stroke="#9D9D9D" stroke-linejoin="round" d="M24.5,0v8.5h9"/>
<path fill="#FF5F01" d="M0,7c0-1.1,0.9-2,1.99-2h16.02C19.11,5,20,5.89,20,7v6c0,1.1-0.9,2-1.99,2H1.99C0.89,15,0,14.11,0,13V7z"/>
<text transform="matrix(1 0 0 1 2 13)" fill="#FFFFFF" font-family="'Arial-BoldMT'" font-size="7">P</text>
<text transform="matrix(1 0 0 1 6.6689 13)" fill="#FFFFFF" font-family="'Arial-BoldMT'" font-size="7"> </text>
<text transform="matrix(1 0 0 1 8.6138 13)" fill="#FFFFFF" font-family="'Arial-BoldMT'" font-size="7">N</text>
<text transform="matrix(1 0 0 1 13.6689 13)" fill="#FFFFFF" font-family="'Arial-BoldMT'" font-size="7"> </text>
<text transform="matrix(1 0 0 1 15.6138 13)" fill="#FFFFFF" font-family="'Arial-BoldMT'" font-size="7">G</text>
</svg>
