<?xml version="1.0" encoding="utf-8"?>
<!-- Generator: Adobe Illustrator 17.0.0, SVG Export Plug-In . SVG Version: 6.00 Build 0)  -->
<!DOCTYPE svg PUBLIC "-//W3C//DTD SVG 1.1//EN" "http://www.w3.org/Graphics/SVG/1.1/DTD/svg11.dtd">
<svg version="1.1" id="Layer_1" xmlns="http://www.w3.org/2000/svg" xmlns:xlink="http://www.w3.org/1999/xlink" x="0px" y="0px"
	 width="34.667px" height="37.083px" viewBox="0 -0.417 34.667 37.083" enable-background="new 0 -0.417 34.667 37.083"
	 xml:space="preserve">
<path fill="none" stroke="#9D9D9D" stroke-linecap="round" stroke-linejoin="round" d="M34,36H7V0h17l10,9V36L34,36z"/>
<path fill="#9D9D9D" d="M20.6,18.2L20.6,18.2L20.6,18.2c0.14-0.56,0.27-0.83,0.27-1.25v-0.27c0.14-0.69,0.14-1.25,0-1.39
	c0,0,0,0,0-0.13l-0.13-0.14l0,0c0,0,0,0.14-0.14,0.14C20.32,15.99,20.32,16.95,20.6,18.2L20.6,18.2L20.6,18.2z M16.45,27.73
	c-0.27,0.13-0.55,0.27-0.69,0.41c-0.96,0.83-1.65,1.8-1.79,2.21l0,0C14.8,30.21,15.62,29.38,16.45,27.73L16.45,27.73L16.45,27.73
	L16.45,27.73z M29.16,25.65c-0.14-0.13-0.69-0.55-2.62-0.55h-0.28l0,0c0,0,0,0,0,0.14c0.97,0.41,1.93,0.69,2.62,0.69h0.28l0,0h0.14
	c0,0,0,0,0-0.14l0,0C29.3,25.79,29.16,25.79,29.16,25.65L29.16,25.65z M29.71,26.76c-0.27,0.14-0.69,0.28-1.24,0.28
	c-1.11,0-2.76-0.28-4.14-0.97c-2.35,0.27-4.15,0.55-5.53,1.1c-0.14,0-0.14,0-0.27,0.14c-1.66,2.9-3.04,4.28-4.15,4.28
	c-0.28,0-0.41,0-0.55-0.13l-0.69-0.42V30.9C13,30.63,13,30.49,13,30.21c0.14-0.69,0.97-1.93,2.62-2.9c0.28-0.14,0.69-0.41,1.25-0.69
	c0.41-0.69,0.83-1.52,1.38-2.49c0.69-1.38,1.1-2.76,1.52-4l0,0c-0.55-1.66-0.83-2.63-0.28-4.56c0.14-0.55,0.55-1.1,1.11-1.1h0.27
	c0.28,0,0.56,0.13,0.83,0.27c0.97,0.97,0.55,3.18,0,4.97v0.14c0.55,1.52,1.38,2.77,2.21,3.59c0.42,0.28,0.69,0.56,1.25,0.83
	c0.69,0,1.24-0.14,1.79-0.14c1.66,0,2.76,0.28,3.18,0.97c0.14,0.28,0.14,0.55,0.14,0.83C30.13,26.07,29.99,26.48,29.71,26.76
	L29.71,26.76z M20.73,21.37c-0.27,0.97-0.82,2.07-1.38,3.32c-0.27,0.55-0.55,0.96-0.83,1.52h0.14h0.14c1.8-0.69,3.45-1.11,4.56-1.25
	c-0.28-0.13-0.42-0.27-0.55-0.41C22.12,23.72,21.29,22.62,20.73,21.37L20.73,21.37z"/>
<path fill="none" stroke="#9D9D9D" stroke-linejoin="round" d="M24.5,0v8.5h9"/>
<path fill="#DC332F" d="M0,7c0-1.1,0.89-2,2-2h15c1.11,0,2,0.89,2,2v6c0,1.1-0.89,2-2,2H2c-1.11,0-2-0.89-2-2V7z"/>
<text transform="matrix(1 0 0 1 2 13)" fill="#FFFFFF" font-family="'Arial-BoldMT'" font-size="7">P</text>
<text transform="matrix(1 0 0 1 7 13)" fill="#FFFFFF" font-family="'Arial-BoldMT'" font-size="7">D</text>
<text transform="matrix(1 0 0 1 12.5304 13)" fill="#FFFFFF" font-family="'Arial-BoldMT'" font-size="7">F</text>
</svg>
