<?xml version="1.0" encoding="utf-8"?>
<!-- Generator: Adobe Illustrator 17.0.0, SVG Export Plug-In . SVG Version: 6.00 Build 0)  -->
<!DOCTYPE svg PUBLIC "-//W3C//DTD SVG 1.1//EN" "http://www.w3.org/Graphics/SVG/1.1/DTD/svg11.dtd">
<svg version="1.1" id="Layer_1" xmlns="http://www.w3.org/2000/svg" xmlns:xlink="http://www.w3.org/1999/xlink" x="0px" y="0px"
	 width="18px" height="18px" viewBox="0 0 18 18" enable-background="new 0 0 18 18" xml:space="preserve">
<path fill="#FFFFFF" d="M18,16V2c0-1.1-0.9-2-2-2H2C0.9,0,0,0.9,0,2v14c0,1.1,0.9,2,2,2h14C17.1,18,18,17.1,18,16L18,16z M5.5,10.5
	l2.5,3L11.5,9l4.5,6H2L5.5,10.5L5.5,10.5z"/>
</svg>
